EESchema Schematic File Version 2
LIBS:power
LIBS:device
LIBS:transistors
LIBS:conn
LIBS:linear
LIBS:regul
LIBS:74xx
LIBS:cmos4000
LIBS:adc-dac
LIBS:memory
LIBS:xilinx
LIBS:microcontrollers
LIBS:dsp
LIBS:microchip
LIBS:analog_switches
LIBS:motorola
LIBS:texas
LIBS:intel
LIBS:audio
LIBS:interface
LIBS:digital-audio
LIBS:philips
LIBS:display
LIBS:cypress
LIBS:siliconi
LIBS:opto
LIBS:atmel
LIBS:contrib
LIBS:valves
LIBS:symbols
LIBS:PicDevKit_2v1-cache
EELAYER 25 0
EELAYER END
$Descr A4 11693 8268
encoding utf-8
Sheet 1 1
Title "Pic dev kit"
Date "10/01/2017"
Rev "2.1"
Comp "UFAL"
Comment1 ""
Comment2 ""
Comment3 ""
Comment4 ""
$EndDescr
$Comp
L VCC #PWR01
U 1 1 5851901F
P 3950 1550
F 0 "#PWR01" H 3950 1400 50  0001 C CNN
F 1 "VCC" H 3950 1700 50  0000 C CNN
F 2 "" H 3950 1550 50  0000 C CNN
F 3 "" H 3950 1550 50  0000 C CNN
	1    3950 1550
	1    0    0    -1  
$EndComp
$Comp
L GND #PWR02
U 1 1 58519036
P 2800 2400
F 0 "#PWR02" H 2800 2150 50  0001 C CNN
F 1 "GND" H 2800 2250 50  0000 C CNN
F 2 "" H 2800 2400 50  0000 C CNN
F 3 "" H 2800 2400 50  0000 C CNN
	1    2800 2400
	1    0    0    -1  
$EndComp
$Comp
L C_Small C1
U 1 1 5851907A
P 2800 2000
F 0 "C1" H 2810 2070 50  0000 L CNN
F 1 "100nF" H 2810 1920 50  0000 L CNN
F 2 "Capacitors_SMD:C_0805_HandSoldering" H 2800 2000 50  0001 C CNN
F 3 "" H 2800 2000 50  0000 C CNN
	1    2800 2000
	1    0    0    -1  
$EndComp
$Comp
L CONN_01X02 OSC1
U 1 1 58519162
P 9400 3400
F 0 "OSC1" H 9400 3550 50  0000 C CNN
F 1 "CONN_01X02" V 9500 3400 50  0000 C CNN
F 2 "Pin_Headers:Pin_Header_Straight_1x02" H 9400 3400 50  0001 C CNN
F 3 "" H 9400 3400 50  0000 C CNN
	1    9400 3400
	1    0    0    -1  
$EndComp
Text Label 8900 3350 0    60   ~ 0
OSC1
Text Label 8900 3450 0    60   ~ 0
OSC2
$Comp
L POT RV1
U 1 1 585192F1
P 5050 1950
F 0 "RV1" H 5050 1870 50  0000 C CNN
F 1 "1k" H 5050 1950 50  0000 C CNN
F 2 "Potentiometers:Potentiometer_Trimmer-Suntan-TSR-3386P" H 5050 1950 50  0001 C CNN
F 3 "" H 5050 1950 50  0000 C CNN
	1    5050 1950
	0    1    1    0   
$EndComp
$Comp
L VCC #PWR03
U 1 1 58519376
P 5050 1700
F 0 "#PWR03" H 5050 1550 50  0001 C CNN
F 1 "VCC" H 5050 1850 50  0000 C CNN
F 2 "" H 5050 1700 50  0000 C CNN
F 3 "" H 5050 1700 50  0000 C CNN
	1    5050 1700
	1    0    0    -1  
$EndComp
$Comp
L GND #PWR04
U 1 1 58519396
P 5050 2250
F 0 "#PWR04" H 5050 2000 50  0001 C CNN
F 1 "GND" H 5050 2100 50  0000 C CNN
F 2 "" H 5050 2250 50  0000 C CNN
F 3 "" H 5050 2250 50  0000 C CNN
	1    5050 2250
	1    0    0    -1  
$EndComp
$Comp
L R R6
U 1 1 585193E7
P 5500 1950
F 0 "R6" V 5580 1950 50  0000 C CNN
F 1 "470" V 5500 1950 50  0000 C CNN
F 2 "Resistors_SMD:R_0805_HandSoldering" V 5430 1950 50  0001 C CNN
F 3 "" H 5500 1950 50  0000 C CNN
	1    5500 1950
	0    1    1    0   
$EndComp
Text Label 6000 1950 2    60   ~ 0
RA5
$Comp
L CONN_01X08 P2
U 1 1 58519B77
P 9400 4150
F 0 "P2" H 9400 4600 50  0000 C CNN
F 1 "CONN_01X08" V 9500 4150 50  0000 C CNN
F 2 "Pin_Headers:Pin_Header_Straight_1x08" H 9400 4150 50  0001 C CNN
F 3 "" H 9400 4150 50  0000 C CNN
	1    9400 4150
	1    0    0    -1  
$EndComp
$Comp
L CONN_01X08 P3
U 1 1 58519BBC
P 9400 5250
F 0 "P3" H 9400 5700 50  0000 C CNN
F 1 "CONN_01X08" V 9500 5250 50  0000 C CNN
F 2 "Pin_Headers:Pin_Header_Straight_1x08" H 9400 5250 50  0001 C CNN
F 3 "" H 9400 5250 50  0000 C CNN
	1    9400 5250
	1    0    0    -1  
$EndComp
Text Label 8950 3800 0    60   ~ 0
RA0
Text Label 8950 3900 0    60   ~ 0
RA1
Text Label 8950 4000 0    60   ~ 0
RA2
Text Label 8950 4100 0    60   ~ 0
RA3
Text Label 8950 4200 0    60   ~ 0
RA4
Text Label 8950 4300 0    60   ~ 0
RC3
Text Label 8950 4400 0    60   ~ 0
RC4
Text Label 8950 4500 0    60   ~ 0
RC5
Text Label 8950 4900 0    60   ~ 0
TX
Text Label 8950 5000 0    60   ~ 0
RX
Text Label 8950 5100 0    60   ~ 0
RB1
Text Label 8950 5200 0    60   ~ 0
RB2
Text Label 8950 5300 0    60   ~ 0
RB3
Text Label 8950 5400 0    60   ~ 0
RB4
Text Label 8950 5500 0    60   ~ 0
VCC
Text Label 8950 5600 0    60   ~ 0
GND
$Comp
L VCC #PWR05
U 1 1 5851A4A3
P 2250 2900
F 0 "#PWR05" H 2250 2750 50  0001 C CNN
F 1 "VCC" H 2250 3050 50  0000 C CNN
F 2 "" H 2250 2900 50  0000 C CNN
F 3 "" H 2250 2900 50  0000 C CNN
	1    2250 2900
	1    0    0    -1  
$EndComp
$Comp
L R R1
U 1 1 5851A5F6
P 1850 3250
F 0 "R1" V 1930 3250 50  0000 C CNN
F 1 "470" V 1850 3250 50  0000 C CNN
F 2 "Resistors_SMD:R_0805_HandSoldering" V 1780 3250 50  0001 C CNN
F 3 "" H 1850 3250 50  0000 C CNN
	1    1850 3250
	1    0    0    -1  
$EndComp
$Comp
L R R2
U 1 1 5851A630
P 2250 3250
F 0 "R2" V 2330 3250 50  0000 C CNN
F 1 "10K" V 2250 3250 50  0000 C CNN
F 2 "Resistors_SMD:R_0805_HandSoldering" V 2180 3250 50  0001 C CNN
F 3 "" H 2250 3250 50  0000 C CNN
	1    2250 3250
	1    0    0    -1  
$EndComp
$Comp
L LED D1
U 1 1 5851A794
P 1850 3750
F 0 "D1" H 1850 3850 50  0000 C CNN
F 1 "LED" H 1850 3650 50  0000 C CNN
F 2 "LEDs:LED_0805" H 1850 3750 50  0001 C CNN
F 3 "" H 1850 3750 50  0000 C CNN
	1    1850 3750
	0    -1   -1   0   
$EndComp
$Comp
L GND #PWR06
U 1 1 5851A4DF
P 1850 4150
F 0 "#PWR06" H 1850 3900 50  0001 C CNN
F 1 "GND" H 1850 4000 50  0000 C CNN
F 2 "" H 1850 4150 50  0000 C CNN
F 3 "" H 1850 4150 50  0000 C CNN
	1    1850 4150
	1    0    0    -1  
$EndComp
$Comp
L SW_PUSH_SMALL_H SW1
U 1 1 5851AAB1
P 2850 3850
F 0 "SW1" H 2930 3960 50  0000 C CNN
F 1 "SW_PUSH_SMALL_H" H 2950 4050 50  0000 C CNN
F 2 "Buttons_Switches_SMD:SW_SPST_EVQPE1" H 2850 4050 50  0001 C CNN
F 3 "" H 2850 4050 50  0000 C CNN
	1    2850 3850
	0    1    1    0   
$EndComp
$Comp
L LED D3
U 1 1 5851B1CB
P 2850 5550
F 0 "D3" H 2850 5650 50  0000 C CNN
F 1 "LED" H 2850 5450 50  0000 C CNN
F 2 "LEDs:LED_0805" H 2850 5550 50  0001 C CNN
F 3 "" H 2850 5550 50  0000 C CNN
	1    2850 5550
	0    -1   -1   0   
$EndComp
$Comp
L LED D4
U 1 1 5851B234
P 3150 5550
F 0 "D4" H 3150 5650 50  0000 C CNN
F 1 "LED" H 3150 5450 50  0000 C CNN
F 2 "LEDs:LED_0805" H 3150 5550 50  0001 C CNN
F 3 "" H 3150 5550 50  0000 C CNN
	1    3150 5550
	0    -1   -1   0   
$EndComp
$Comp
L LED D5
U 1 1 5851B297
P 3450 5550
F 0 "D5" H 3450 5650 50  0000 C CNN
F 1 "LED" H 3450 5450 50  0000 C CNN
F 2 "LEDs:LED_0805" H 3450 5550 50  0001 C CNN
F 3 "" H 3450 5550 50  0000 C CNN
	1    3450 5550
	0    -1   -1   0   
$EndComp
$Comp
L R R3
U 1 1 5851B336
P 2850 5150
F 0 "R3" V 2930 5150 50  0000 C CNN
F 1 "470" V 2850 5150 50  0000 C CNN
F 2 "Resistors_SMD:R_0805_HandSoldering" V 2780 5150 50  0001 C CNN
F 3 "" H 2850 5150 50  0000 C CNN
	1    2850 5150
	1    0    0    -1  
$EndComp
$Comp
L R R4
U 1 1 5851B38D
P 3150 5150
F 0 "R4" V 3230 5150 50  0000 C CNN
F 1 "470" V 3150 5150 50  0000 C CNN
F 2 "Resistors_SMD:R_0805_HandSoldering" V 3080 5150 50  0001 C CNN
F 3 "" H 3150 5150 50  0000 C CNN
	1    3150 5150
	1    0    0    -1  
$EndComp
$Comp
L R R5
U 1 1 5851B3D9
P 3450 5150
F 0 "R5" V 3530 5150 50  0000 C CNN
F 1 "470" V 3450 5150 50  0000 C CNN
F 2 "Resistors_SMD:R_0805_HandSoldering" V 3380 5150 50  0001 C CNN
F 3 "" H 3450 5150 50  0000 C CNN
	1    3450 5150
	1    0    0    -1  
$EndComp
$Comp
L GND #PWR07
U 1 1 5851B5C4
P 3150 6050
F 0 "#PWR07" H 3150 5800 50  0001 C CNN
F 1 "GND" H 3150 5900 50  0000 C CNN
F 2 "" H 3150 6050 50  0000 C CNN
F 3 "" H 3150 6050 50  0000 C CNN
	1    3150 6050
	1    0    0    -1  
$EndComp
$Comp
L D_Schottky D2
U 1 1 5851BBCF
P 2500 3550
F 0 "D2" H 2500 3650 50  0000 C CNN
F 1 "D_Schottky" H 2500 3450 50  0000 C CNN
F 2 "Diodes_ThroughHole:Diode_DO-41_SOD81_Vertical_KathodeUp" H 2500 3550 50  0001 C CNN
F 3 "" H 2500 3550 50  0000 C CNN
	1    2500 3550
	-1   0    0    1   
$EndComp
$Comp
L PIC16F883-X/SO PIC1
U 1 1 5851ED19
P 3850 3850
F 0 "PIC1" H 4700 4350 70  0000 C CNN
F 1 "PIC16F883-X/SO" H 4700 2650 60  0000 C CNN
F 2 "Housings_SOIC:SOIC-28W_7.5x17.9mm_Pitch1.27mm" H 5300 1900 60  0001 C CNN
F 3 "" H 3850 3850 60  0000 C CNN
	1    3850 3850
	1    0    0    -1  
$EndComp
Text Label 3700 4850 0    60   ~ 0
RC3
$Comp
L GND #PWR08
U 1 1 5851FD52
P 3550 4350
F 0 "#PWR08" H 3550 4100 50  0001 C CNN
F 1 "GND" H 3550 4200 50  0000 C CNN
F 2 "" H 3550 4350 50  0000 C CNN
F 3 "" H 3550 4350 50  0000 C CNN
	1    3550 4350
	1    0    0    -1  
$EndComp
Text Label 3700 4350 0    60   ~ 0
OSC1
Text Label 3700 4450 0    60   ~ 0
OSC2
Text Label 3700 3650 0    60   ~ 0
RA0
Text Label 3700 3750 0    60   ~ 0
RA1
Text Label 3700 3850 0    60   ~ 0
RA2
Text Label 3700 3950 0    60   ~ 0
RA3
Text Label 3700 4050 0    60   ~ 0
RA4
Text Label 3700 4150 0    60   ~ 0
RA5
Text Label 6300 2800 0    60   ~ 0
PGC
Text Label 6300 2900 0    60   ~ 0
PGD
$Comp
L VCC #PWR09
U 1 1 58521633
P 8050 1350
F 0 "#PWR09" H 8050 1200 50  0001 C CNN
F 1 "VCC" H 8050 1500 50  0000 C CNN
F 2 "" H 8050 1350 50  0000 C CNN
F 3 "" H 8050 1350 50  0000 C CNN
	1    8050 1350
	1    0    0    -1  
$EndComp
$Comp
L GND #PWR010
U 1 1 58521683
P 8050 2600
F 0 "#PWR010" H 8050 2350 50  0001 C CNN
F 1 "GND" H 8050 2450 50  0000 C CNN
F 2 "" H 8050 2600 50  0000 C CNN
F 3 "" H 8050 2600 50  0000 C CNN
	1    8050 2600
	1    0    0    -1  
$EndComp
$Comp
L SW_PUSH_SMALL_H SW2
U 1 1 58521735
P 8050 2250
F 0 "SW2" H 8130 2360 50  0000 C CNN
F 1 "SW_PUSH_SMALL_H" H 8100 2450 50  0000 C CNN
F 2 "Buttons_Switches_SMD:SW_SPST_EVQPE1" H 8050 2450 50  0001 C CNN
F 3 "" H 8050 2450 50  0000 C CNN
	1    8050 2250
	0    1    1    0   
$EndComp
$Comp
L R R7
U 1 1 58521940
P 8050 1700
F 0 "R7" V 8130 1700 50  0000 C CNN
F 1 "10K" V 8050 1700 50  0000 C CNN
F 2 "Resistors_SMD:R_0805_HandSoldering" V 7980 1700 50  0001 C CNN
F 3 "" H 8050 1700 50  0000 C CNN
	1    8050 1700
	1    0    0    -1  
$EndComp
Text Label 5700 3550 2    60   ~ 0
PGD
Text Label 5700 3650 2    60   ~ 0
PGC
Text Label 6300 3000 0    60   ~ 0
GND
Text Label 6300 3200 0    60   ~ 0
VPP
Text Label 5700 3750 2    60   ~ 0
PGM
$Comp
L CONN_01X06 P1
U 1 1 5852D7E1
P 6800 2950
F 0 "P1" H 6800 3300 50  0000 C CNN
F 1 "CONN_01X06" V 6900 2950 50  0000 C CNN
F 2 "Pin_Headers:Pin_Header_Straight_1x06" H 6800 2950 50  0001 C CNN
F 3 "" H 6800 2950 50  0000 C CNN
	1    6800 2950
	1    0    0    -1  
$EndComp
Text Label 6300 2700 0    60   ~ 0
PGM
Text Label 5700 3850 2    60   ~ 0
RB4
Text Label 5700 3950 2    60   ~ 0
RB3
Text Label 5700 4050 2    60   ~ 0
RB2
Text Label 5700 4150 2    60   ~ 0
RB1
Text Label 5700 4550 2    60   ~ 0
RX
Text Label 5700 4650 2    60   ~ 0
TX
Text Label 5700 4750 2    60   ~ 0
RC5
Text Label 5700 4850 2    60   ~ 0
RC4
$Comp
L BARREL_JACK CON1
U 1 1 5852F5A6
P 2100 2000
F 0 "CON1" H 2100 2250 50  0000 C CNN
F 1 "BARREL_JACK" H 2100 1800 50  0000 C CNN
F 2 "Connect:BARREL_JACK" H 2100 2000 50  0001 C CNN
F 3 "" H 2100 2000 50  0000 C CNN
	1    2100 2000
	1    0    0    -1  
$EndComp
$Comp
L PWR_FLAG #FLG011
U 1 1 5852F8A3
P 2550 1650
F 0 "#FLG011" H 2550 1745 50  0001 C CNN
F 1 "PWR_FLAG" H 2550 1830 50  0000 C CNN
F 2 "" H 2550 1650 50  0000 C CNN
F 3 "" H 2550 1650 50  0000 C CNN
	1    2550 1650
	1    0    0    -1  
$EndComp
$Comp
L GND #PWR012
U 1 1 5853123C
P 2850 4200
F 0 "#PWR012" H 2850 3950 50  0001 C CNN
F 1 "GND" H 2850 4050 50  0000 C CNN
F 2 "" H 2850 4200 50  0000 C CNN
F 3 "" H 2850 4200 50  0000 C CNN
	1    2850 4200
	1    0    0    -1  
$EndComp
$Comp
L PWR_FLAG #FLG013
U 1 1 5853189D
P 2550 2400
F 0 "#FLG013" H 2550 2495 50  0001 C CNN
F 1 "PWR_FLAG" H 2550 2580 50  0000 C CNN
F 2 "" H 2550 2400 50  0000 C CNN
F 3 "" H 2550 2400 50  0000 C CNN
	1    2550 2400
	-1   0    0    1   
$EndComp
Text Label 6300 3100 0    60   ~ 0
VCC
Text Label 7650 2000 0    60   ~ 0
RB0
Text Label 5700 4250 2    60   ~ 0
RB0
$Comp
L VCC #PWR014
U 1 1 5853262F
P 5900 4250
F 0 "#PWR014" H 5900 4100 50  0001 C CNN
F 1 "VCC" H 5900 4400 50  0000 C CNN
F 2 "" H 5900 4250 50  0000 C CNN
F 3 "" H 5900 4250 50  0000 C CNN
	1    5900 4250
	1    0    0    -1  
$EndComp
$Comp
L GND #PWR015
U 1 1 58532685
P 5900 4550
F 0 "#PWR015" H 5900 4300 50  0001 C CNN
F 1 "GND" H 5900 4400 50  0000 C CNN
F 2 "" H 5900 4550 50  0000 C CNN
F 3 "" H 5900 4550 50  0000 C CNN
	1    5900 4550
	1    0    0    -1  
$EndComp
Wire Wire Line
	2800 1800 2800 1900
Wire Wire Line
	2550 1900 2400 1900
Wire Wire Line
	2550 1650 2550 1800
Wire Wire Line
	2550 1800 2550 1900
Wire Wire Line
	2550 1800 2800 1800
Wire Wire Line
	2800 1800 2950 1800
Connection ~ 2800 1800
Wire Wire Line
	2400 2000 2550 2000
Wire Wire Line
	2400 2100 2550 2100
Wire Wire Line
	9200 3350 8900 3350
Wire Wire Line
	9200 3450 8900 3450
Wire Wire Line
	5050 2250 5050 2100
Wire Wire Line
	5050 1800 5050 1700
Wire Wire Line
	5200 1950 5350 1950
Wire Wire Line
	5650 1950 6000 1950
Wire Wire Line
	9200 3800 8950 3800
Wire Wire Line
	9200 3900 8950 3900
Wire Wire Line
	9200 4000 8950 4000
Wire Wire Line
	9200 4100 8950 4100
Wire Wire Line
	9200 4200 8950 4200
Wire Wire Line
	9200 4300 8950 4300
Wire Wire Line
	9200 4400 8950 4400
Wire Wire Line
	9200 4500 8950 4500
Wire Wire Line
	9200 4900 8950 4900
Wire Wire Line
	9200 5000 8950 5000
Wire Wire Line
	9200 5100 8950 5100
Wire Wire Line
	9200 5200 8950 5200
Wire Wire Line
	9200 5300 8950 5300
Wire Wire Line
	9200 5400 8950 5400
Wire Wire Line
	9200 5500 8950 5500
Wire Wire Line
	9200 5600 8950 5600
Wire Wire Line
	2250 2900 2250 3000
Wire Wire Line
	2250 3000 2250 3100
Wire Wire Line
	1850 3000 2250 3000
Connection ~ 2250 3000
Wire Wire Line
	1850 3400 1850 3550
Wire Wire Line
	2850 3550 2850 3700
Wire Wire Line
	2650 3550 2850 3550
Wire Wire Line
	2850 3550 3300 3550
Wire Wire Line
	3300 3550 4000 3550
Wire Wire Line
	2850 4000 2850 4200
Wire Wire Line
	2250 3400 2250 3550
Wire Wire Line
	2250 3550 2350 3550
Connection ~ 2850 3550
Wire Wire Line
	2850 5300 2850 5350
Wire Wire Line
	3150 5300 3150 5350
Wire Wire Line
	3450 5300 3450 5350
Wire Wire Line
	3450 5750 3450 6050
Wire Wire Line
	2850 5750 2850 6050
Wire Wire Line
	3150 5750 3150 6050
Wire Wire Line
	2850 5000 2850 4550
Wire Wire Line
	2850 4550 4000 4550
Wire Wire Line
	3150 5000 3150 4650
Wire Wire Line
	3150 4650 4000 4650
Wire Wire Line
	3450 5000 3450 4750
Wire Wire Line
	3450 4750 4000 4750
Wire Wire Line
	4000 4850 3700 4850
Wire Wire Line
	4000 4450 3700 4450
Wire Wire Line
	4000 4350 3700 4350
Wire Wire Line
	4000 4250 3550 4250
Wire Wire Line
	3550 4250 3550 4350
Wire Wire Line
	4000 3650 3700 3650
Wire Wire Line
	4000 3750 3700 3750
Wire Wire Line
	4000 3850 3700 3850
Wire Wire Line
	4000 3950 3700 3950
Wire Wire Line
	4000 4050 3700 4050
Wire Wire Line
	4000 4150 3700 4150
Wire Wire Line
	6600 2800 6300 2800
Wire Wire Line
	6600 2900 6300 2900
Wire Wire Line
	6300 3000 6600 3000
Wire Wire Line
	6300 3100 6600 3100
Wire Wire Line
	3300 3200 6600 3200
Wire Wire Line
	3300 3200 3300 3550
Connection ~ 3300 3550
Wire Wire Line
	8050 2400 8050 2600
Wire Wire Line
	8050 1350 8050 1550
Wire Wire Line
	8050 1850 8050 2000
Wire Wire Line
	8050 2000 8050 2100
Wire Wire Line
	5400 3550 5700 3550
Wire Wire Line
	5400 3650 5700 3650
Wire Wire Line
	5400 3750 5700 3750
Wire Wire Line
	6600 2700 6300 2700
Wire Wire Line
	5400 3850 5700 3850
Wire Wire Line
	5400 3950 5700 3950
Wire Wire Line
	5400 4050 5700 4050
Wire Wire Line
	5400 4150 5700 4150
Wire Wire Line
	5400 4550 5700 4550
Wire Wire Line
	5400 4650 5700 4650
Wire Wire Line
	5400 4750 5700 4750
Wire Wire Line
	5400 4850 5700 4850
Wire Wire Line
	2550 2250 2800 2250
Wire Wire Line
	2800 2250 3350 2250
Wire Wire Line
	3350 2250 3950 2250
Connection ~ 2550 1800
Wire Wire Line
	2550 2000 2550 2100
Wire Wire Line
	2550 2100 2550 2250
Wire Wire Line
	2550 2250 2550 2400
Connection ~ 2550 2100
Wire Wire Line
	2800 2100 2800 2250
Wire Wire Line
	2800 2250 2800 2400
Connection ~ 2800 2250
Wire Wire Line
	1850 3000 1850 3100
Wire Wire Line
	1850 3950 1850 4150
Connection ~ 2550 2250
Wire Wire Line
	7650 2000 8050 2000
Connection ~ 8050 2000
Wire Wire Line
	5400 4250 5700 4250
Wire Wire Line
	5400 4350 5900 4350
Wire Wire Line
	5900 4350 5900 4250
Wire Wire Line
	5400 4450 5900 4450
Wire Wire Line
	5900 4450 5900 4550
$Comp
L GND #PWR016
U 1 1 5859511D
P 2850 6050
F 0 "#PWR016" H 2850 5800 50  0001 C CNN
F 1 "GND" H 2850 5900 50  0000 C CNN
F 2 "" H 2850 6050 50  0000 C CNN
F 3 "" H 2850 6050 50  0000 C CNN
	1    2850 6050
	1    0    0    -1  
$EndComp
$Comp
L GND #PWR017
U 1 1 5859516A
P 3450 6050
F 0 "#PWR017" H 3450 5800 50  0001 C CNN
F 1 "GND" H 3450 5900 50  0000 C CNN
F 2 "" H 3450 6050 50  0000 C CNN
F 3 "" H 3450 6050 50  0000 C CNN
	1    3450 6050
	1    0    0    -1  
$EndComp
$Comp
L LD1117S50CTR U1
U 1 1 58744B3B
P 3350 1850
F 0 "U1" H 3350 2100 50  0000 C CNN
F 1 "LD1117S50CTR" H 3350 2050 50  0000 C CNN
F 2 "SOT-223" H 3350 1950 50  0000 C CNN
F 3 "" H 3350 1850 50  0000 C CNN
	1    3350 1850
	1    0    0    -1  
$EndComp
Wire Wire Line
	3950 1800 3750 1800
Wire Wire Line
	3950 1550 3950 1800
Wire Wire Line
	3950 1800 3950 1900
Wire Wire Line
	3350 2250 3350 2100
$Comp
L C_Small C2
U 1 1 587453F9
P 3950 2000
F 0 "C2" H 3960 2070 50  0000 L CNN
F 1 "10uF" H 3960 1920 50  0000 L CNN
F 2 "Capacitors_SMD:C_0805_HandSoldering" H 3950 2000 50  0001 C CNN
F 3 "" H 3950 2000 50  0000 C CNN
	1    3950 2000
	1    0    0    -1  
$EndComp
Connection ~ 3950 1800
Wire Wire Line
	3950 2250 3950 2100
Connection ~ 3350 2250
Text Notes 5900 7250 0    60   ~ 0
Dec 12, 2016
$EndSCHEMATC
